12/07/2014 00:00:00 [ERROR] Cannot rename because item at 'd:\scripts\logs\DMZGrab.log' does not exist.

12/07/2014 00:00:00 [ERROR] Cannot rename because item at 'd:\scripts\logs\DMZGrab.log' does not exist.

12/07/2014 00:00:00 [ERROR] Cannot find path 'D:\scripts\logs\DMZGrab-20141207-0000.log' because it does not exist. Cannot rename because item at 'd:\scripts\logs\DMZGrab.log' does not exist.

12/07/2014 00:00:00 [ERROR] Cannot find path 'D:\scripts\logs\DMZGrab-20141207-0000.log' because it does not exist. Cannot rename because item at 'd:\scripts\logs\DMZGrab.log' does not exist.

12/08/2014 00:00:00 Files renamed successfully!

12/08/2014 00:00:00 [ERROR] Cannot rename because item at 'd:\scripts\logs\DMZGrab.log' does not exist.

