[12/17/2014 09:23:00] Copied \\192.168.23.89\VLTrader\MercuryGate\inbox\SWIFT-CAR-INV-443393385060.xml to D:\B2B\Outbound\APInvoices\MercuryGate_SWIFT-CAR-INV-443393385060.xml
[12/17/2014 09:23:00] Copied \\192.168.23.89\VLTrader\MercuryGate\inbox\SWIFT-CAR-INV-443393385061.xml to D:\B2B\Outbound\APInvoices\MercuryGate_SWIFT-CAR-INV-443393385061.xml
[12/17/2014 09:25:00] Copied \\192.168.23.89\VLTrader\MercuryGate\inbox\SWIFT-CAR-INV-443393385062.xml to D:\B2B\Outbound\APInvoices\MercuryGate_SWIFT-CAR-INV-443393385062.xml
[12/17/2014 09:25:00] Copied \\192.168.23.89\VLTrader\MercuryGate\inbox\SWIFT-CAR-INV-443393385063.xml to D:\B2B\Outbound\APInvoices\MercuryGate_SWIFT-CAR-INV-443393385063.xml
[12/17/2014 09:25:00] Copied \\192.168.23.89\VLTrader\MercuryGate\inbox\SWIFT-CAR-INV-443393385064.xml to D:\B2B\Outbound\APInvoices\MercuryGate_SWIFT-CAR-INV-443393385064.xml
[12/17/2014 09:25:00] Copied \\192.168.23.89\VLTrader\MercuryGate\inbox\SWIFT-CAR-INV-443393385065.xml to D:\B2B\Outbound\APInvoices\MercuryGate_SWIFT-CAR-INV-443393385065.xml
[12/17/2014 09:25:00] Copied \\192.168.23.89\VLTrader\MercuryGate\inbox\SWIFT-CAR-INV-443393385066.xml to D:\B2B\Outbound\APInvoices\MercuryGate_SWIFT-CAR-INV-443393385066.xml
[12/17/2014 09:25:00] Copied \\192.168.23.89\VLTrader\MercuryGate\inbox\SWIFT-CAR-INV-443393385067.xml to D:\B2B\Outbound\APInvoices\MercuryGate_SWIFT-CAR-INV-443393385067.xml
[12/17/2014 09:25:00] Copied \\192.168.23.89\VLTrader\MercuryGate\inbox\SWIFT-CAR-INV-443393385068.xml to D:\B2B\Outbound\APInvoices\MercuryGate_SWIFT-CAR-INV-443393385068.xml
